<svg width="636" height="654" viewBox="0 0 636 654" fill="none" xmlns="http://www.w3.org/2000/svg" xmlns:xlink="http://www.w3.org/1999/xlink">
<rect x="9" y="9" width="626" height="644" fill="url(#pattern0)"/>
<path d="M320 644.5C151.6 644.5 13.8999 506.7 13.8999 338.4V319.7C13.8999 151.3 151.7 13.6 320 13.6H320.6C488.6 13.6 626.1 151.1 626.1 319.1V338.4C626.1 506.7 488.4 644.5 320 644.5Z" fill="#EFF0F4"/>
<rect width="636" height="654" fill="url(#pattern1)"/>
<path d="M320 640.5C153.8 640.5 17.7002 504.5 17.7002 338.2V319.7C17.7002 153.5 153.7 17.4 320 17.4H320.6C486.5 17.4 622.2 153.1 622.2 319V338.1C622.3 504.5 486.2 640.5 320 640.5Z" fill="#EFF0F4"/>
<path d="M320 644.5C151.6 644.5 13.8999 506.7 13.8999 338.4V319.7C13.8999 151.3 151.7 13.6 320 13.6H320.6C488.6 13.6 626.1 151.1 626.1 319.1V338.4C626.1 506.7 488.4 644.5 320 644.5Z" fill="white"/>
<path d="M234.2 56.3H404.9C503.2 56.3 583.5 136.7 583.5 234.9V421.7C583.5 520 503.1 600.3 404.9 600.3H233.6C135.7 600.3 55.6001 520.2 55.6001 422.3V234.9C55.6001 136.7 135.9 56.3 234.2 56.3Z" fill="white"/>
<path d="M345.2 66.1C364.8 66.1 438.4 72.5 453.2 83.3C482.7 92.8 508.5 109.9 528.9 131.9C543.7 147.9 552.1 168.8 560.6 190.3C567.3 207 574.4 270.8 574.4 290.1V394C574.4 502.2 487.3 590.8 380.8 590.8H241.3C237.7 590.8 227.3 590.6 223.8 590.2C187.4 587.5 154.1 573.4 127.8 551.7C101.8 530.4 88.4002 499 77.4002 465.9C72.4002 450.9 66.2002 379.9 66.2002 363V292.5C66.2002 280.7 68.5002 239.8 72.7002 229.4C86.0002 164.3 132.4 111.8 192.1 92C210.3 75.9 319.4 66.1 345.2 66.1Z" fill="white"/>
<path d="M285.4 75.9C170.7 75.9 76.8003 172.6 76.8003 290.9V415.8C76.8003 449.6 84.9003 481.5 99.1003 509.6C111.3 533.7 131.3 553 155.9 564.2C180.2 575.3 207.1 581.5 235.3 581.5H356.5C471.2 581.5 565.1 484.8 565.1 366.5V252.4C565.1 213.7 555 177.3 537.5 145.9C526.1 125.5 508.9 108.8 488 98.1C460.2 83.9 429 75.9 396.1 75.9H285.4Z" fill="white"/>
<path d="M120.3 542.9C120.2 543 120.1 543.1 120 543.2C156.5 578.6 205.5 600.3 259.2 600.3H369.4C487.2 600.3 583.5 501 583.5 379.6V276.9C583.5 217.8 560.6 164.1 523.6 124.3L523.5 124.2C515.5 115.6 506.2 108.3 496 102.5C466.3 85.6 432.3 75.9 396.2 75.9H285.4C170.7 75.9 76.8003 172.6 76.8003 290.9V415.8C76.8003 463.8 93.1003 508 120.3 542.9Z" fill="white"/>
<path d="M285.4 75.9C170.7 75.9 76.8003 172.6 76.8003 290.9V406.4C76.8003 410.2 77.0003 423.4 77.4003 427.1C79.5003 463.6 91.1003 497.6 109.6 526.6C124.7 547.3 145.2 564 169 574.5C192.7 585 218.7 590.8 245.9 591C246.4 591 248.4 591 248.9 591H363C479.3 591 574.4 493 574.4 373.2V279C574.4 273.2 574 253.2 573.1 247.7C569.6 205.6 554 167.1 530.7 135.2L530.6 135.1C523.4 125.1 514.7 116.4 504.8 109.2C496.9 103.5 488.5 98.5 479.5 94.4C455.6 83.5 429.4 77 401.8 76.2C399.9 76.1 393 76 391.1 76H285.4V75.9Z" fill="white"/>
<path d="M285.4 75.9C170.7 75.9 76.8003 172.6 76.8003 290.9V415.8C76.8003 449.6 84.9003 481.5 99.1003 509.6C111.3 533.7 131.3 553 155.9 564.2C180.2 575.3 207.1 581.5 235.3 581.5H356.5C471.2 581.5 565.1 484.8 565.1 366.5V252.4C565.1 213.7 555 177.3 537.5 145.9C526.1 125.5 508.9 108.8 488 98.1C460.2 83.9 429 75.9 396.1 75.9H285.4Z" fill="white"/>
<path d="M454.337 197.663C380.119 123.446 259.881 123.446 185.663 197.663C111.446 271.881 111.446 392.119 185.663 466.337C259.881 540.554 380.119 540.554 454.337 466.337C528.554 392.119 528.554 272.014 454.337 197.663ZM446.356 439.336C437.445 431.356 428.001 424.44 418.026 418.321C424.676 395.444 428.533 370.306 429.464 344.237H485.327C482.8 379.35 469.233 412.469 446.356 439.336ZM154.673 344.104H210.536C211.467 370.306 215.324 395.444 221.974 418.188C211.999 424.307 202.422 431.223 193.644 439.203C170.767 412.469 157.2 379.35 154.673 344.104ZM193.644 224.797C202.555 232.777 211.999 239.693 221.974 245.812C215.324 268.689 211.467 293.827 210.536 319.896H154.673C157.2 284.65 170.767 251.664 193.644 224.797ZM307.896 248.339C288.211 246.876 269.058 242.088 251.502 233.974C261.743 207.506 280.63 175.85 307.896 168.003V248.339ZM307.896 272.546V319.896H234.743C235.541 297.817 238.733 276.536 243.92 257.117C264.004 265.896 285.551 271.216 307.896 272.546ZM307.896 344.104V391.454C285.551 392.784 264.004 398.104 243.92 406.883C238.733 387.464 235.541 366.183 234.743 344.104H307.896ZM307.896 415.794V496.13C280.63 488.283 261.743 456.627 251.502 430.159C269.058 422.046 288.078 417.257 307.896 415.794ZM332.104 415.794C351.789 417.257 370.942 422.046 388.498 430.159C378.257 456.627 359.37 488.283 332.104 496.13V415.794ZM332.104 391.587V344.237H405.257C404.459 366.316 401.267 387.597 396.08 407.016C375.996 398.104 354.449 392.917 332.104 391.587ZM332.104 319.896V272.546C354.449 271.216 375.996 265.896 396.08 257.117C401.267 276.536 404.459 297.817 405.257 319.896H332.104ZM332.104 248.339V168.003C359.37 175.85 378.257 207.506 388.498 233.974C370.942 242.088 351.789 246.876 332.104 248.339ZM386.503 180.106C402.065 186.89 416.43 196.067 429.464 207.506C423.346 212.959 416.829 217.88 410.046 222.27C403.927 207.373 396.213 192.875 386.503 180.106ZM230.087 222.27C223.304 217.88 216.787 212.959 210.669 207.506C223.57 196.067 238.068 186.89 253.63 180.106C243.787 192.875 236.073 207.373 230.087 222.27ZM230.087 441.864C236.073 456.76 243.787 471.391 253.497 484.027C237.935 477.243 223.57 468.066 210.536 456.627C216.787 451.174 223.304 446.253 230.087 441.864ZM409.912 441.864C416.696 446.253 423.213 451.174 429.331 456.627C416.43 468.066 401.932 477.243 386.37 484.027C396.213 471.258 403.927 456.76 409.912 441.864ZM429.464 319.896C428.533 293.694 424.676 268.556 418.026 245.812C428.001 239.693 437.578 232.777 446.356 224.797C469.233 251.664 482.8 284.783 485.327 319.896H429.464Z" fill="#463B30"/>
<defs>
<pattern id="pattern0" patternContentUnits="objectBoundingBox" width="1" height="1">
<use xlink:href="#image0"/>
</pattern>
<pattern id="pattern1" patternContentUnits="objectBoundingBox" width="1" height="1">
<use xlink:href="#image1"/>
</pattern>
<image id="image0" xlink:href="data:image/png;base64,iVBORw0KGgoAAAANSUhEUgAAAnIAAAKECAYAAACD5deRAAAACXBIWXMAAAsSAAALEgHS3X78AAAA"/>
<image id="image1" xlink:href="data:image/png;base64,iVBORw0KGgoAAAANSUhEUgAAAnwAAAKOCAYAAAA8t8REAAAACXBIWXMAAAsSAAALEgHS3X78AAAA"/>
</defs>
</svg>
